// Jest Snapshot v1, https://goo.gl/fbAQLP

exports[`should not show a spinner immediately 1`] = `""`;

exports[`should support an inverted mode 1`] = `
<div
  className="loadingIndicator"
>
  <div
    className="spinner medium inverted"
  >
    <span
      className="spinner__dot spinner__dot1"
    />
    <span
      className="spinner__dot spinner__dot2"
    />
    <span
      className="spinner__dot spinner__dot3"
    />
    <span
      className="spinner__dot spinner__dot4"
    />
  </div>
</div>
`;
